<svg xmlns="http://www.w3.org/2000/svg" width="52.47" height="40.41" viewBox="0 0 52.47 40.41">
  <metadata><?xpacket begin="﻿" id="W5M0MpCehiHzreSzNTczkc9d"?>
<x:xmpmeta xmlns:x="adobe:ns:meta/" x:xmptk="Adobe XMP Core 5.6-c138 79.159824, 2016/09/14-01:09:01        ">
   <rdf:RDF xmlns:rdf="http://www.w3.org/1999/02/22-rdf-syntax-ns#">
      <rdf:Description rdf:about=""/>
   </rdf:RDF>
</x:xmpmeta>
                                                                                                    
                                                                                                    
                                                                                                    
                                                                                                    
                                                                                                    
                                                                                                    
                                                                                                    
                                                                                                    
                                                                                                    
                                                                                                    
                                                                                                    
                                                                                                    
                                                                                                    
                                                                                                    
                                                                                                    
                                                                                                    
                                                                                                    
                                                                                                    
                                                                                                    
                                                                                                    
                           
<?xpacket end="w"?></metadata>
<defs>
    <style>
      .cls-1 {
        fill: #dadad6;
        fill-rule: evenodd;
        mix-blend-mode: luminosity;
      }
    </style>
  </defs>
  <path id="Forma_1" data-name="Forma 1" class="cls-1" d="M2013.04,2064.2h3.44v11.18h-3.44V2064.2Zm-6.02-1.72h3.44v12.9h-3.44v-12.9Zm31.85,16.42v-23.26a6.105,6.105,0,0,0-6.14-6.06h-29.92a6.114,6.114,0,0,0-6.15,6.06v23.26h-5.12v5.04a6.114,6.114,0,0,0,6.15,6.06h40.16a6.114,6.114,0,0,0,6.15-6.06v-5.04h-5.13Zm-38.73-23.3a3.1,3.1,0,0,1,2.58-2.58h30.1a3.1,3.1,0,0,1,2.58,2.58v23.22h-35.26V2055.6Zm9.46,30.96h-12.04c-1.13,0-1.92-1.51-1.92-2.62l0.2-1.68h13.76v4.3Zm12.04,0h-7.74v-4.3h7.74v4.3Zm18.26-2.62c0,1.11-.79,2.62-1.92,2.62h-12.04v-4.3h13.76Zm-14.82-16.3h3.44v6.88h-3.44v-6.88Zm-6.02-9.46h3.44v17.2h-3.44v-17.2Z" transform="translate(-1991.53 -2049.59)"/>
</svg>
