<svg xmlns="http://www.w3.org/2000/svg" width="35.187" height="47.31" viewBox="0 0 35.187 47.31">
  <metadata><?xpacket begin="﻿" id="W5M0MpCehiHzreSzNTczkc9d"?>
<x:xmpmeta xmlns:x="adobe:ns:meta/" x:xmptk="Adobe XMP Core 5.6-c138 79.159824, 2016/09/14-01:09:01        ">
   <rdf:RDF xmlns:rdf="http://www.w3.org/1999/02/22-rdf-syntax-ns#">
      <rdf:Description rdf:about=""/>
   </rdf:RDF>
</x:xmpmeta>
                                                                                                    
                                                                                                    
                                                                                                    
                                                                                                    
                                                                                                    
                                                                                                    
                                                                                                    
                                                                                                    
                                                                                                    
                                                                                                    
                                                                                                    
                                                                                                    
                                                                                                    
                                                                                                    
                                                                                                    
                                                                                                    
                                                                                                    
                                                                                                    
                                                                                                    
                                                                                                    
                           
<?xpacket end="w"?></metadata>
<defs>
    <style>
      .cls-1 {
        fill: #dadada;
        fill-rule: evenodd;
      }
    </style>
  </defs>
  <path id="Forma_1" data-name="Forma 1" class="cls-1" d="M483.01,2435.23v5.36a8.917,8.917,0,0,0-3.22,12.12,8.767,8.767,0,0,0,12.015,3.25,8.909,8.909,0,0,0,0-15.37v-5.36a8.9,8.9,0,0,0,3.22-12.11,8.758,8.758,0,0,0-12.015-3.25,8.917,8.917,0,0,0-3.22,12.12A8.743,8.743,0,0,0,483.01,2435.23Zm10.261,13.03a5.864,5.864,0,1,1-11.727.01,5.953,5.953,0,0,1,1.466-3.92v3.91h2.932V2436.3a8.027,8.027,0,0,0,2.932,0v11.96h2.931v-3.91A5.953,5.953,0,0,1,493.271,2448.26Zm-5.863-26.61a5.915,5.915,0,1,1-5.864,5.92A5.891,5.891,0,0,1,487.408,2421.65Zm13.193,11.83h-4.4v2.95h4.4a1.478,1.478,0,0,1,1.467,1.48v23.65a1.472,1.472,0,0,1-1.467,1.48H474.214a1.472,1.472,0,0,1-1.466-1.48v-23.65a1.478,1.478,0,0,1,1.466-1.48h4.4v-2.95h-4.4a4.412,4.412,0,0,0-4.4,4.43v23.65a4.42,4.42,0,0,0,4.4,4.44H500.6a4.42,4.42,0,0,0,4.4-4.44v-23.65A4.412,4.412,0,0,0,500.6,2433.48Zm-24.921,23.65h2.933v2.96H475.68v-2.96Zm20.524,0h2.931v2.96H496.2v-2.96Z" transform="translate(-469.813 -2418.69)"/>
</svg>
