<svg xmlns="http://www.w3.org/2000/svg" width="51.184" height="51.18" viewBox="0 0 51.184 51.18">
  <metadata><?xpacket begin="﻿" id="W5M0MpCehiHzreSzNTczkc9d"?>
<x:xmpmeta xmlns:x="adobe:ns:meta/" x:xmptk="Adobe XMP Core 5.6-c138 79.159824, 2016/09/14-01:09:01        ">
   <rdf:RDF xmlns:rdf="http://www.w3.org/1999/02/22-rdf-syntax-ns#">
      <rdf:Description rdf:about=""/>
   </rdf:RDF>
</x:xmpmeta>
                                                                                                    
                                                                                                    
                                                                                                    
                                                                                                    
                                                                                                    
                                                                                                    
                                                                                                    
                                                                                                    
                                                                                                    
                                                                                                    
                                                                                                    
                                                                                                    
                                                                                                    
                                                                                                    
                                                                                                    
                                                                                                    
                                                                                                    
                                                                                                    
                                                                                                    
                                                                                                    
                           
<?xpacket end="w"?></metadata>
<defs>
    <style>
      .cls-1 {
        fill: #25bb4d;
        fill-rule: evenodd;
        opacity: 0.3;
        mix-blend-mode: luminosity;
      }
    </style>
  </defs>
  <path id="Forma_1_copy_6" data-name="Forma 1 copy 6" class="cls-1" d="M1011.79,2247.83l-1.1,3.99a19.337,19.337,0,0,1-12.511-12.51l3.981-1.1v-12.12H987.4v7.39a29.12,29.12,0,0,0,29.121,29.12h7.38v-14.77h-12.11Zm9.11,11.77h-4.38a26.119,26.119,0,0,1-26.121-26.12v-4.38h8.765v6.82l-4.624,1.28,0.333,1.41a22.31,22.31,0,0,0,16.517,16.51l1.41,0.34,1.27-4.63h6.83v8.77h0Zm10.2-40.71a25.617,25.617,0,0,0-36.2,0l2.12,2.13a22.6,22.6,0,1,1,31.962,31.96l2.12,2.12A25.6,25.6,0,0,0,1031.1,2218.89Zm-20.47,18.22v-3.01h6.01v-9h-9.01v3h6.01v3h-6.01v9.01h9.01v-3h-6.01Zm15.02-12.01v6h-3.01v-6h-3v9h6.01v6.01h3V2225.1h-3Z" transform="translate(-987.406 -2211.41)"/>
</svg>
