<?xml version="1.0" encoding="utf-8"?>
<svg version="1.1" xmlns="http://www.w3.org/2000/svg" xmlns:xlink="http://www.w3.org/1999/xlink" x="0px" y="0px" viewBox="0 0 395 90" xml:space="preserve">
    <g>
        <g>
            <path fill="#ffffff" d="M288.3,28.7c-2.3,0-4.2,1.9-4.2,4.2v14.8c0,5.2-2.6,8.1-8.4,8.1c-5.9,0-8.4-2.9-8.4-8.1l0,0v-18h-7.7v18c0,5.2-2.5,8.1-8.4,8.1c-5.8,0-8.4-2.9-8.4-8.1l0,0v-16h-7.7v16c0,5.2-2.6,8.1-8.4,8.1c-5.6,0-8.1-2.7-8.4-7.4V28.7h-3.5c-2.3,0-4.2,1.9-4.2,4.2v14.8c0,5.2-2.6,8.1-8.5,8.1h-12.9V28.6h-7.8v32.2c0,5.5-2.5,9.3-9.1,9.3v5c0,1.1,0.9,1.9,1.9,1.9l0,0c9,0,14.6-5.6,14.9-14.2h12.9h2.4c4.4,0,8.7-1.5,11.3-5.2c2.5,3.3,6.2,5.2,9.8,5.2h0.9h0.2h2.2c4.4,0,8.8-1.5,11.4-5.3c2.5,3.3,6.2,5.3,9.8,5.3h0.9h0.2h2.2c4.4,0,8.8-1.5,11.4-5.3c2.5,3.3,6.2,5.3,9.8,5.3h1h0.1h2.3c7,0,13.8-3.7,13.8-14.2V28.7H288.3z"/>
            <circle fill="#ffffff" cx="219.2" cy="73.4" r="4.5"/>
            <circle fill="#ffffff" cx="207.1" cy="73.4" r="4.5"/>
            <circle fill="#ffffff" cx="156.4" cy="16.6" r="4.5"/>
            <path fill="#ffffff" d="M161.5,26.8h-5.1c-10.4,0-17.8,7.9-17.8,18.5c0,4.2,1.2,7.7,3.2,10.5h-12.2c-5.9,0-8.5-2.9-8.5-8.1V32.7h-3.5c-2.3,0-4.2,1.9-4.2,4.2v11.5c0,10.5,6.8,14.2,13.8,14.2h34.3h3.3h4.5V26.8h-7H161.5z M156.3,55.8c-5.3-0.1-9.9-4-9.9-10.5c0-7.4,4.7-11.5,10.1-11.5h5.1v22H156.3z"/>
            <path fill="#ffffff" d="M92.2,62.7h7.8V18.6h-3.6c-2.3,0-4.2,1.9-4.2,4.2V62.7z"/>
            <path fill="#ffffff" d="M54.2,47.7c0,5.2-2.6,8.1-8.5,8.1s-7.5-2.9-7.5-8.1l0,0v-12h-7.7v12c0,5.2-2.6,8.1-8.5,8.1h-6.8c-5.9,0-7.5-2.9-7.5-8.1V18.6H4.2c-2.3,0-4.2,1.9-4.2,4.2v25.7C0,59,6.8,62.7,13.8,62.7H22h0.7h1.7c4.2,0,8.2-1.3,10.9-4.6c2.5,2.9,5.9,4.6,9.3,4.6h1.1h2.4c7,0,13.8-3.7,13.8-14.2V28.7h-3.5c-2.3,0-4.2,1.9-4.2,4.2V47.7z"/>
            <circle fill="#ffffff" cx="49.3" cy="73.4" r="4.5"/>
            <circle fill="#ffffff" cx="37.3" cy="73.4" r="4.5"/>
            <circle fill="#ffffff" cx="34.3" cy="23.1" r="4.5"/>
            <path fill="#ffffff" d="M73.3,60.8c0,5.5-2.5,9.3-9.1,9.3v5c0,1.1,0.9,1.9,1.9,1.9l0,0c9.3,0,15-6,15-15V28.6h-7.8V60.8z"/>
        </g>
        <g>
            <path fill="#2172E8" d="M360.2,0.1c-16.5-1.1-33.5,8.6-41.1,23.2c1.9-2.8,5.7-4.8,10.3-5.6c6.3-1,13.8-0.2,21.7,1.9c7.3,1.9,14.5,4.9,21.2,8.6l15.5-15.8C380.5,5.2,370.5,0.7,360.2,0.1z"/>
            <path fill="#26BC4D" d="M372.3,28.2c-6.7-3.7-13.9-6.6-21.2-8.6c-7.9-2.1-15.4-2.9-21.7-1.9c-5.3,0.9-9.6,3.4-11.1,7c-0.1,0.1-0.2,0.4-0.4,0.7c-2.2,4.4-1.7,10.2,0.9,15.6c2.9,6.2,8.2,12,14.9,16.9c1.8,1.3,3.7,2.6,5.6,3.8l7.7-7.8L372.3,28.2z"/>
            <path fill="#F9423A" d="M351.4,89.9c16.5,1.1,33.5-8.6,41.1-23.2c-1.9,2.8-5.7,4.8-10.3,5.6c-6.3,1-13.8,0.2-21.7-1.9c-7.3-1.9-14.5-4.9-21.2-8.6l-15.5,15.8C331.1,84.8,341.1,89.3,351.4,89.9z"/>
            <path fill="#F9CF00" d="M339.3,61.8c6.7,3.7,13.9,6.6,21.2,8.6c7.9,2.1,15.4,2.9,21.7,1.9c5.3-0.9,9.6-3.4,11.1-7c0.1-0.1,0.2-0.4,0.4-0.7c2.2-4.4,1.7-10.2-0.9-15.6c-2.9-6.2-8.2-12-14.9-16.9c-1.8-1.3-3.7-2.6-5.6-3.8l-7.7,7.8L339.3,61.8z"/>
        </g>
    </g>
</svg>