<svg xmlns="http://www.w3.org/2000/svg" width="52" height="52.97" viewBox="0 0 52 52.97">
  <metadata><?xpacket begin="﻿" id="W5M0MpCehiHzreSzNTczkc9d"?>
<x:xmpmeta xmlns:x="adobe:ns:meta/" x:xmptk="Adobe XMP Core 5.6-c138 79.159824, 2016/09/14-01:09:01        ">
   <rdf:RDF xmlns:rdf="http://www.w3.org/1999/02/22-rdf-syntax-ns#">
      <rdf:Description rdf:about=""/>
   </rdf:RDF>
</x:xmpmeta>
                                                                                                    
                                                                                                    
                                                                                                    
                                                                                                    
                                                                                                    
                                                                                                    
                                                                                                    
                                                                                                    
                                                                                                    
                                                                                                    
                                                                                                    
                                                                                                    
                                                                                                    
                                                                                                    
                                                                                                    
                                                                                                    
                                                                                                    
                                                                                                    
                                                                                                    
                                                                                                    
                           
<?xpacket end="w"?></metadata>
<defs>
    <style>
      .cls-1 {
        fill: #dadada;
        fill-rule: evenodd;
      }
    </style>
  </defs>
  <path id="Forma_1" data-name="Forma 1" class="cls-1" d="M492.542,1620.72a1.04,1.04,0,1,0-1.041-1.04A1.038,1.038,0,0,0,492.542,1620.72Zm-31.251-20.73a3.12,3.12,0,1,0,3.125,3.12A3.126,3.126,0,0,0,461.291,1599.99Zm0,4.16a1.04,1.04,0,1,1,1.043-1.04A1.043,1.043,0,0,1,461.291,1604.15Zm41.666,27.43h-8.481l-2.621-8.06a1.083,1.083,0,0,0-1.981,0l-2.622,8.06h-8.481a1.045,1.045,0,0,0-.613,1.89l6.874,4.99-2.455,7.98a1.05,1.05,0,0,0,.392,1.16,1.027,1.027,0,0,0,.6.19,1.06,1.06,0,0,0,.615-0.2l6.677-4.89,6.677,4.89a1.042,1.042,0,0,0,1.611-1.15l-2.454-7.98,6.87-4.99A1.045,1.045,0,0,0,502.957,1631.58Zm-9.072,5.54a0.847,0.847,0,0,0-.324.95l1.476,4.73-4.014-2.89a0.891,0.891,0,0,0-.518-0.17,0.915,0.915,0,0,0-.522.17l-4.015,2.89,1.477-4.73a0.848,0.848,0,0,0-.323-0.95l-4.117-2.95h5.088a0.88,0.88,0,0,0,.837-0.59l1.573-4.77,1.573,4.77a0.879,0.879,0,0,0,.837.59H498Zm-9.676-37.13a1.038,1.038,0,0,0-1.042,1.04v4.16a1.042,1.042,0,0,0,2.083,0v-4.16A1.037,1.037,0,0,0,484.209,1599.99Zm5.208,19.69a1.042,1.042,0,1,0-1.041,1.04A1.044,1.044,0,0,0,489.417,1619.68Zm3.125-19.69a1.037,1.037,0,0,0-1.041,1.04v4.16a1.042,1.042,0,0,0,2.083,0v-4.16A1.038,1.038,0,0,0,492.542,1599.99Zm4.167,24.9a1.044,1.044,0,0,0,1.042-1.04v-4.17a1.042,1.042,0,0,0-2.084,0v4.17A1.044,1.044,0,0,0,496.709,1624.89Zm-8.333-24.9a1.038,1.038,0,0,0-1.042,1.04v4.16a1.042,1.042,0,0,0,2.083,0v-4.16A1.038,1.038,0,0,0,488.376,1599.99Zm-30.209,21.78a3.125,3.125,0,1,0,3.124-3.13A3.126,3.126,0,0,0,458.167,1621.77Zm4.166,0a1.042,1.042,0,1,1-1.042-1.05A1.043,1.043,0,0,1,462.333,1621.77Zm20.834-2.09v4.17a1.042,1.042,0,0,0,2.083,0v-4.17A1.042,1.042,0,0,0,483.167,1619.68Zm13.542-19.69a1.038,1.038,0,0,0-1.042,1.04v4.16a1.042,1.042,0,0,0,2.084,0v-4.16A1.038,1.038,0,0,0,496.709,1599.99Zm2.663,10.99c3.1,0,5.629-1.9,5.629-5.24v-4.85c0-3.35-2.432-6.07-5.417-6.07H458.416c-2.985,0-5.416,2.72-5.416,6.07v4.85c0,3.34,2.431,6.06,5.416,6.06L472,1611.81v2l-13.588-.05a5.355,5.355,0,0,0-5.412,5.28v4.23c0,2.91,3.129,6.53,6,6.53h14v2h-2v3H459c-0.575,0-.834.97-0.834,1.54s0.259,1.46.834,1.46h10s-0.108,2,1,2h8a1.349,1.349,0,0,0,1-1.38v-1.15a1.469,1.469,0,0,0-1-1.47c-1,0-1,2-1,2h-5v-2h1v-2h2v-4h11l1-3s-1.293.17-1.869,0.17H459.208a3.126,3.126,0,0,1-3.125-3.12v-4.17a2.749,2.749,0,0,1,2.917-2.87h40a2.749,2.749,0,0,1,2.917,2.87v4.17a3.126,3.126,0,0,1-3.125,3.12H496.6l0.4,2.83h3c2.983,0,4.961-3.62,4.961-6.53v-4.23a5.355,5.355,0,0,0-5.412-5.28l-24.549.05v-2l24.584-.01ZM459,1608.81c-1.723,0-2.917-1.9-2.917-3.62v-4.16a3.135,3.135,0,0,1,3.125-3.13h39.584a3.135,3.135,0,0,1,3.125,3.13v4.16c0,1.72-1.194,3.62-2.917,3.62H459Zm26,18.99" transform="translate(-453 -1594.81)"/>
</svg>
