<?xml version="1.0" encoding="utf-8"?>
<svg version="1.1" xmlns="http://www.w3.org/2000/svg" xmlns:xlink="http://www.w3.org/1999/xlink" x="0px" y="0px" viewBox="-57 352 495.8 90" xml:space="preserve">
    <g>
        <g>
            <path fill="#ffffff" d="M66.3,393.6l-7-1.5c-3.3-0.7-4.9-2.6-4.9-5.2c0-3,2.9-5.8,7.2-5.8c6.8,0,8.6,4.9,9,7.2l1.4-0.5c3.9-1.5,5-6.5,2-9.4c-2.5-2.5-6.4-4.4-12.4-4.4c-8.4,0-15.4,6.3-15.4,13.7c0,6.1,4,10.7,10.8,12.1l7.4,1.6c3.6,0.8,5.6,2.9,5.6,5.6c0,3.1-2.6,5.8-7.4,5.8c-6.1,0-9.5-3.6-10.1-8.1l-1.9,0.7c-3.7,1.3-5,6-2.4,8.9c2.8,3.1,7.4,5.7,14.2,5.7c10.7,0,15.8-7.3,15.8-13.4C78.2,400.1,74.1,395.4,66.3,393.6z"/>
            <path fill="#ffffff" d="M106.2,374c-10.9,0-20.7,9.3-20.7,22.8c0,14.6,10.2,23.1,21.7,23.1c7.7,0,13.5-3.5,16.9-8.6c1.6-2.4,0.5-5.8-2.2-6.7l-2.6-0.9c-1.6,4.9-5.1,8.7-12.1,8.7c-7.3,0-12.8-5.4-13-13.1h32.5c0.1-0.5,0.2-1.6,0.2-2.7C126.9,383.1,119.5,374,106.2,374z M94.5,392.5c0.4-5.6,4.7-11.1,11.8-11.1c7.6,0,11.7,4.9,11.9,11.1H94.5z"/>
            <path fill="#ffffff" d="M146,382.9v-3.4c0-2.3-1.9-4.2-4.2-4.2h-4.1v43.2h8.4v-21.6c0-9.5,4.8-13.3,11.9-13.3c1.2,0,2.4,0.1,3.7,0.3v-9c-0.4-0.1-1.6-0.3-2.8-0.3C154.5,374.6,149.1,376.2,146,382.9z"/>
            <path fill="#ffffff" d="M198.4,379.7l-10.8,29l-10.8-29.2c-0.9-2.5-3.3-4.2-6-4.2h-5.1l17.5,43.2h8.5l17.3-43.2h-4.4C201.8,375.3,199.3,377.1,198.4,379.7z"/>
            <path fill="#ffffff" d="M254.3,375.3h-3.5c-2.7,0-4.9,2.2-4.9,4.9v1.2c-1.4-3.5-5.6-7.3-13.2-7.3c-12.2,0-20.5,10.2-20.5,22.5c0,12.8,7.8,23.1,20.5,23.1c6.7,0,11.3-3.6,13.4-7.7v0.7c0,2.6,0.3,4.9,0.4,5.8h8.2c-0.1-0.8-0.4-4.1-0.4-8V375.3z M233.5,412.2c-8.1,0-12.7-6.7-12.7-15.6s5-15,12.8-15c7.7,0,12.4,6.1,12.4,15C246,405.5,241.2,412.2,233.5,412.2z"/>
            <path fill="#ffffff" d="M276.5,382.9V380c0-2.6-2.1-4.7-4.7-4.7h-3.6v43.2h8.4v-21.6c0-9.5,4.8-13.3,11.9-13.3c1.2,0,2.4,0.1,3.7,0.3v-9c-0.4-0.1-1.6-0.3-2.8-0.3C285,374.6,279.6,376.2,276.5,382.9z"/>
            <path fill="#ffffff" d="M317.9,374c-10.9,0-20.7,9.3-20.7,22.8c0,14.6,10.2,23.1,21.7,23.1c7.6,0,13.4-3.4,16.8-8.4c1.7-2.5,0.5-6-2.3-6.9l-2.4-0.8c-1.6,4.9-5.1,8.7-12.1,8.7c-7.3,0-12.8-5.4-13-13.1h32.5c0.1-0.5,0.2-1.6,0.2-2.7C338.6,383.1,331.2,374,317.9,374z M306.2,392.5c0.4-5.6,4.7-11.1,11.8-11.1c7.6,0,11.7,4.9,11.9,11.1H306.2z"/>
            <path fill="#ffffff" d="M371,374.1c-5,0-10.2,2.1-13.3,7.5v-1c0-2.8-2.3-5.2-5.2-5.2h-3.1v43.2h8.4v-25c0-6.6,3.4-11.9,10.1-11.9c7.5,0,10.1,4.9,10.1,10.9v26h8.4v-27.5C386.4,381.5,381.3,374.1,371,374.1z"/>
            <path fill="#ffffff" d="M438.4,375.3h-4.5c-2.1,0-3.9,1.7-3.9,3.9v2.2c-1.4-3.5-5.6-7.3-13.2-7.3c-12.2,0-20.5,10.2-20.5,22.5c0,12.8,7.8,23.1,20.5,23.1c6.7,0,11.3-3.6,13.4-7.7v0.7c0,2.6,0.3,4.9,0.4,5.8h8.2c-0.1-0.8-0.4-4.1-0.4-8V375.3z M417.6,412.2c-8.1,0-12.7-6.7-12.7-15.6s5-15,12.8-15c7.7,0,12.4,6.1,12.4,15C430.1,405.5,425.3,412.2,417.6,412.2z"/>
        </g>
        <g>
            <path fill="#2172E8" d="M-13.4,352.1c-16.5-1.1-33.4,8.6-41.1,23.2c1.9-2.8,5.7-4.8,10.3-5.6c6.3-1,13.8-0.2,21.7,1.9c7.3,1.9,14.5,4.9,21.2,8.6l15.5-15.8C6.9,357.2-3.1,352.7-13.4,352.1z"/>
			<path fill="#26BC4D" d="M-1.3,380.2c-6.7-3.7-13.9-6.6-21.2-8.6c-7.9-2.1-15.4-2.9-21.7-1.9c-5.3,0.9-9.6,3.4-11.1,7c-0.1,0.1-0.2,0.4-0.4,0.7c-2.2,4.4-1.7,10.2,0.9,15.6c2.9,6.2,8.2,12,14.9,16.9c1.8,1.3,3.7,2.6,5.6,3.8l7.7-7.8L-1.3,380.2z"/>
			<path fill="#F9423A" d="M-22.2,441.9c16.5,1.1,33.5-8.6,41.1-23.2c-1.9,2.8-5.7,4.8-10.3,5.6c-6.3,1-13.8,0.2-21.7-1.9c-7.3-1.9-14.5-4.9-21.2-8.6l-15.5,15.8C-42.5,436.8-32.5,441.3-22.2,441.9z"/>
            <path fill="#F9CF00" d="M-34.3,413.8c6.7,3.7,13.9,6.6,21.2,8.6c7.9,2.1,15.4,2.9,21.7,1.9c5.3-0.9,9.6-3.4,11.1-7c0.1-0.1,0.2-0.4,0.4-0.7c2.2-4.4,1.7-10.2-0.9-15.6c-2.9-6.2-8.2-12-14.9-16.9c-1.8-1.3-3.7-2.6-5.6-3.8l-7.7,7.8L-34.3,413.8z"/>
        </g>
    </g>
</svg>